%YAML 1.1
%TAG !u! tag:unity3d.com,2011:
--- !u!1 &6288562849218785369
GameObject:
  m_ObjectHideFlags: 0
  m_CorrespondingSourceObject: {fileID: 0}
  m_PrefabInstance: {fileID: 0}
  m_PrefabAsset: {fileID: 0}
  serializedVersion: 6
  m_Component:
  - component: {fileID: 4456293225445436388}
  - component: {fileID: 120061214836643549}
  m_Layer: 31
  m_Name: Obstacles
  m_TagString: Untagged
  m_Icon: {fileID: 0}
  m_NavMeshLayer: 0
  m_StaticEditorFlags: 0
  m_IsActive: 1
--- !u!4 &4456293225445436388
Transform:
  m_ObjectHideFlags: 0
  m_CorrespondingSourceObject: {fileID: 0}
  m_PrefabInstance: {fileID: 0}
  m_PrefabAsset: {fileID: 0}
  m_GameObject: {fileID: 6288562849218785369}
  m_LocalRotation: {x: 0, y: 0, z: 0, w: 1}
  m_LocalPosition: {x: 0, y: 0, z: 0}
  m_LocalScale: {x: 1, y: 1, z: 1}
  m_Children:
  - {fileID: 8795892563366608142}
  m_Father: {fileID: 0}
  m_RootOrder: 0
  m_LocalEulerAnglesHint: {x: 0, y: 0, z: 0}
--- !u!156049354 &120061214836643549
Grid:
  m_ObjectHideFlags: 0
  m_CorrespondingSourceObject: {fileID: 0}
  m_PrefabInstance: {fileID: 0}
  m_PrefabAsset: {fileID: 0}
  m_GameObject: {fileID: 6288562849218785369}
  m_Enabled: 1
  m_CellSize: {x: 1, y: 1, z: 0}
  m_CellGap: {x: 0, y: 0, z: 0}
  m_CellLayout: 0
  m_CellSwizzle: 0
--- !u!1 &8038383334406385043
GameObject:
  m_ObjectHideFlags: 0
  m_CorrespondingSourceObject: {fileID: 0}
  m_PrefabInstance: {fileID: 0}
  m_PrefabAsset: {fileID: 0}
  serializedVersion: 6
  m_Component:
  - component: {fileID: 8795892563366608142}
  - component: {fileID: 1656780705435761919}
  - component: {fileID: 8796744099667987815}
  m_Layer: 31
  m_Name: Layer1
  m_TagString: Untagged
  m_Icon: {fileID: 0}
  m_NavMeshLayer: 0
  m_StaticEditorFlags: 0
  m_IsActive: 1
--- !u!4 &8795892563366608142
Transform:
  m_ObjectHideFlags: 0
  m_CorrespondingSourceObject: {fileID: 0}
  m_PrefabInstance: {fileID: 0}
  m_PrefabAsset: {fileID: 0}
  m_GameObject: {fileID: 8038383334406385043}
  m_LocalRotation: {x: -0, y: -0, z: -0, w: 1}
  m_LocalPosition: {x: 0, y: 0, z: 0}
  m_LocalScale: {x: 1, y: 1, z: 1}
  m_Children: []
  m_Father: {fileID: 4456293225445436388}
  m_RootOrder: 0
  m_LocalEulerAnglesHint: {x: 0, y: 0, z: 0}
--- !u!1839735485 &1656780705435761919
Tilemap:
  m_ObjectHideFlags: 0
  m_CorrespondingSourceObject: {fileID: 0}
  m_PrefabInstance: {fileID: 0}
  m_PrefabAsset: {fileID: 0}
  m_GameObject: {fileID: 8038383334406385043}
  m_Enabled: 1
  m_Tiles:
  - first: {x: -2, y: -8, z: 0}
    second:
      m_TileIndex: 45
      m_TileSpriteIndex: 45
      m_TileMatrixIndex: 0
      m_TileColorIndex: 0
      m_ObjectToInstantiate: {fileID: 0}
      m_TileFlags: 1
      m_ColliderType: 1
  - first: {x: -1, y: -8, z: 0}
    second:
      m_TileIndex: 43
      m_TileSpriteIndex: 43
      m_TileMatrixIndex: 0
      m_TileColorIndex: 0
      m_ObjectToInstantiate: {fileID: 0}
      m_TileFlags: 1
      m_ColliderType: 1
  - first: {x: 0, y: -8, z: 0}
    second:
      m_TileIndex: 44
      m_TileSpriteIndex: 44
      m_TileMatrixIndex: 0
      m_TileColorIndex: 0
      m_ObjectToInstantiate: {fileID: 0}
      m_TileFlags: 1
      m_ColliderType: 1
  - first: {x: 1, y: -8, z: 0}
    second:
      m_TileIndex: 50
      m_TileSpriteIndex: 50
      m_TileMatrixIndex: 0
      m_TileColorIndex: 0
      m_ObjectToInstantiate: {fileID: 0}
      m_TileFlags: 1
      m_ColliderType: 1
  - first: {x: 2, y: -8, z: 0}
    second:
      m_TileIndex: 52
      m_TileSpriteIndex: 52
      m_TileMatrixIndex: 0
      m_TileColorIndex: 0
      m_ObjectToInstantiate: {fileID: 0}
      m_TileFlags: 1
      m_ColliderType: 1
  - first: {x: 3, y: -8, z: 0}
    second:
      m_TileIndex: 53
      m_TileSpriteIndex: 53
      m_TileMatrixIndex: 0
      m_TileColorIndex: 0
      m_ObjectToInstantiate: {fileID: 0}
      m_TileFlags: 1
      m_ColliderType: 1
  - first: {x: -2, y: -7, z: 0}
    second:
      m_TileIndex: 46
      m_TileSpriteIndex: 46
      m_TileMatrixIndex: 0
      m_TileColorIndex: 0
      m_ObjectToInstantiate: {fileID: 0}
      m_TileFlags: 1
      m_ColliderType: 1
  - first: {x: 0, y: -7, z: 0}
    second:
      m_TileIndex: 47
      m_TileSpriteIndex: 47
      m_TileMatrixIndex: 0
      m_TileColorIndex: 0
      m_ObjectToInstantiate: {fileID: 0}
      m_TileFlags: 1
      m_ColliderType: 1
  - first: {x: 1, y: -7, z: 0}
    second:
      m_TileIndex: 48
      m_TileSpriteIndex: 48
      m_TileMatrixIndex: 0
      m_TileColorIndex: 0
      m_ObjectToInstantiate: {fileID: 0}
      m_TileFlags: 1
      m_ColliderType: 1
  - first: {x: 2, y: -7, z: 0}
    second:
      m_TileIndex: 49
      m_TileSpriteIndex: 49
      m_TileMatrixIndex: 0
      m_TileColorIndex: 0
      m_ObjectToInstantiate: {fileID: 0}
      m_TileFlags: 1
      m_ColliderType: 1
  - first: {x: 3, y: -7, z: 0}
    second:
      m_TileIndex: 51
      m_TileSpriteIndex: 51
      m_TileMatrixIndex: 0
      m_TileColorIndex: 0
      m_ObjectToInstantiate: {fileID: 0}
      m_TileFlags: 1
      m_ColliderType: 1
  - first: {x: -2, y: -6, z: 0}
    second:
      m_TileIndex: 40
      m_TileSpriteIndex: 40
      m_TileMatrixIndex: 0
      m_TileColorIndex: 0
      m_ObjectToInstantiate: {fileID: 0}
      m_TileFlags: 1
      m_ColliderType: 1
  - first: {x: -1, y: -6, z: 0}
    second:
      m_TileIndex: 41
      m_TileSpriteIndex: 41
      m_TileMatrixIndex: 0
      m_TileColorIndex: 0
      m_ObjectToInstantiate: {fileID: 0}
      m_TileFlags: 1
      m_ColliderType: 1
  - first: {x: 0, y: -6, z: 0}
    second:
      m_TileIndex: 42
      m_TileSpriteIndex: 42
      m_TileMatrixIndex: 0
      m_TileColorIndex: 0
      m_ObjectToInstantiate: {fileID: 0}
      m_TileFlags: 1
      m_ColliderType: 1
  - first: {x: 5, y: -5, z: 0}
    second:
      m_TileIndex: 54
      m_TileSpriteIndex: 54
      m_TileMatrixIndex: 0
      m_TileColorIndex: 0
      m_ObjectToInstantiate: {fileID: 0}
      m_TileFlags: 1
      m_ColliderType: 1
  - first: {x: -2, y: -4, z: 0}
    second:
      m_TileIndex: 28
      m_TileSpriteIndex: 28
      m_TileMatrixIndex: 0
      m_TileColorIndex: 0
      m_ObjectToInstantiate: {fileID: 0}
      m_TileFlags: 1
      m_ColliderType: 1
  - first: {x: -1, y: -4, z: 0}
    second:
      m_TileIndex: 29
      m_TileSpriteIndex: 29
      m_TileMatrixIndex: 0
      m_TileColorIndex: 0
      m_ObjectToInstantiate: {fileID: 0}
      m_TileFlags: 1
      m_ColliderType: 1
  - first: {x: 0, y: -4, z: 0}
    second:
      m_TileIndex: 30
      m_TileSpriteIndex: 30
      m_TileMatrixIndex: 0
      m_TileColorIndex: 0
      m_ObjectToInstantiate: {fileID: 0}
      m_TileFlags: 1
      m_ColliderType: 1
  - first: {x: 1, y: -4, z: 0}
    second:
      m_TileIndex: 31
      m_TileSpriteIndex: 31
      m_TileMatrixIndex: 0
      m_TileColorIndex: 0
      m_ObjectToInstantiate: {fileID: 0}
      m_TileFlags: 1
      m_ColliderType: 1
  - first: {x: 5, y: -4, z: 0}
    second:
      m_TileIndex: 22
      m_TileSpriteIndex: 22
      m_TileMatrixIndex: 0
      m_TileColorIndex: 0
      m_ObjectToInstantiate: {fileID: 0}
      m_TileFlags: 1
      m_ColliderType: 1
  - first: {x: 6, y: -4, z: 0}
    second:
      m_TileIndex: 23
      m_TileSpriteIndex: 23
      m_TileMatrixIndex: 0
      m_TileColorIndex: 0
      m_ObjectToInstantiate: {fileID: 0}
      m_TileFlags: 1
      m_ColliderType: 1
  - first: {x: -2, y: -3, z: 0}
    second:
      m_TileIndex: 9
      m_TileSpriteIndex: 9
      m_TileMatrixIndex: 0
      m_TileColorIndex: 0
      m_ObjectToInstantiate: {fileID: 0}
      m_TileFlags: 1
      m_ColliderType: 1
  - first: {x: -1, y: -3, z: 0}
    second:
      m_TileIndex: 10
      m_TileSpriteIndex: 10
      m_TileMatrixIndex: 0
      m_TileColorIndex: 0
      m_ObjectToInstantiate: {fileID: 0}
      m_TileFlags: 1
      m_ColliderType: 1
  - first: {x: 0, y: -3, z: 0}
    second:
      m_TileIndex: 27
      m_TileSpriteIndex: 27
      m_TileMatrixIndex: 0
      m_TileColorIndex: 0
      m_ObjectToInstantiate: {fileID: 0}
      m_TileFlags: 1
      m_ColliderType: 1
  - first: {x: 1, y: -3, z: 0}
    second:
      m_TileIndex: 24
      m_TileSpriteIndex: 24
      m_TileMatrixIndex: 0
      m_TileColorIndex: 0
      m_ObjectToInstantiate: {fileID: 0}
      m_TileFlags: 1
      m_ColliderType: 1
  - first: {x: 3, y: -3, z: 0}
    second:
      m_TileIndex: 35
      m_TileSpriteIndex: 35
      m_TileMatrixIndex: 0
      m_TileColorIndex: 0
      m_ObjectToInstantiate: {fileID: 0}
      m_TileFlags: 1
      m_ColliderType: 1
  - first: {x: 5, y: -3, z: 0}
    second:
      m_TileIndex: 21
      m_TileSpriteIndex: 21
      m_TileMatrixIndex: 0
      m_TileColorIndex: 0
      m_ObjectToInstantiate: {fileID: 0}
      m_TileFlags: 1
      m_ColliderType: 1
  - first: {x: 6, y: -3, z: 0}
    second:
      m_TileIndex: 20
      m_TileSpriteIndex: 20
      m_TileMatrixIndex: 0
      m_TileColorIndex: 0
      m_ObjectToInstantiate: {fileID: 0}
      m_TileFlags: 1
      m_ColliderType: 1
  - first: {x: 7, y: -3, z: 0}
    second:
      m_TileIndex: 39
      m_TileSpriteIndex: 39
      m_TileMatrixIndex: 0
      m_TileColorIndex: 0
      m_ObjectToInstantiate: {fileID: 0}
      m_TileFlags: 1
      m_ColliderType: 1
  - first: {x: -2, y: -2, z: 0}
    second:
      m_TileIndex: 6
      m_TileSpriteIndex: 6
      m_TileMatrixIndex: 0
      m_TileColorIndex: 0
      m_ObjectToInstantiate: {fileID: 0}
      m_TileFlags: 1
      m_ColliderType: 1
  - first: {x: -1, y: -2, z: 0}
    second:
      m_TileIndex: 7
      m_TileSpriteIndex: 7
      m_TileMatrixIndex: 0
      m_TileColorIndex: 0
      m_ObjectToInstantiate: {fileID: 0}
      m_TileFlags: 1
      m_ColliderType: 1
  - first: {x: 0, y: -2, z: 0}
    second:
      m_TileIndex: 8
      m_TileSpriteIndex: 8
      m_TileMatrixIndex: 0
      m_TileColorIndex: 0
      m_ObjectToInstantiate: {fileID: 0}
      m_TileFlags: 1
      m_ColliderType: 1
  - first: {x: 1, y: -2, z: 0}
    second:
      m_TileIndex: 25
      m_TileSpriteIndex: 25
      m_TileMatrixIndex: 0
      m_TileColorIndex: 0
      m_ObjectToInstantiate: {fileID: 0}
      m_TileFlags: 1
      m_ColliderType: 1
  - first: {x: 3, y: -2, z: 0}
    second:
      m_TileIndex: 34
      m_TileSpriteIndex: 34
      m_TileMatrixIndex: 0
      m_TileColorIndex: 0
      m_ObjectToInstantiate: {fileID: 0}
      m_TileFlags: 1
      m_ColliderType: 1
  - first: {x: 4, y: -2, z: 0}
    second:
      m_TileIndex: 17
      m_TileSpriteIndex: 17
      m_TileMatrixIndex: 0
      m_TileColorIndex: 0
      m_ObjectToInstantiate: {fileID: 0}
      m_TileFlags: 1
      m_ColliderType: 1
  - first: {x: 5, y: -2, z: 0}
    second:
      m_TileIndex: 18
      m_TileSpriteIndex: 18
      m_TileMatrixIndex: 0
      m_TileColorIndex: 0
      m_ObjectToInstantiate: {fileID: 0}
      m_TileFlags: 1
      m_ColliderType: 1
  - first: {x: 6, y: -2, z: 0}
    second:
      m_TileIndex: 19
      m_TileSpriteIndex: 19
      m_TileMatrixIndex: 0
      m_TileColorIndex: 0
      m_ObjectToInstantiate: {fileID: 0}
      m_TileFlags: 1
      m_ColliderType: 1
  - first: {x: 7, y: -2, z: 0}
    second:
      m_TileIndex: 38
      m_TileSpriteIndex: 38
      m_TileMatrixIndex: 0
      m_TileColorIndex: 0
      m_ObjectToInstantiate: {fileID: 0}
      m_TileFlags: 1
      m_ColliderType: 1
  - first: {x: -2, y: -1, z: 0}
    second:
      m_TileIndex: 3
      m_TileSpriteIndex: 3
      m_TileMatrixIndex: 0
      m_TileColorIndex: 0
      m_ObjectToInstantiate: {fileID: 0}
      m_TileFlags: 1
      m_ColliderType: 1
  - first: {x: -1, y: -1, z: 0}
    second:
      m_TileIndex: 4
      m_TileSpriteIndex: 4
      m_TileMatrixIndex: 0
      m_TileColorIndex: 0
      m_ObjectToInstantiate: {fileID: 0}
      m_TileFlags: 1
      m_ColliderType: 1
  - first: {x: 0, y: -1, z: 0}
    second:
      m_TileIndex: 5
      m_TileSpriteIndex: 5
      m_TileMatrixIndex: 0
      m_TileColorIndex: 0
      m_ObjectToInstantiate: {fileID: 0}
      m_TileFlags: 1
      m_ColliderType: 1
  - first: {x: 1, y: -1, z: 0}
    second:
      m_TileIndex: 26
      m_TileSpriteIndex: 26
      m_TileMatrixIndex: 0
      m_TileColorIndex: 0
      m_ObjectToInstantiate: {fileID: 0}
      m_TileFlags: 1
      m_ColliderType: 1
  - first: {x: 3, y: -1, z: 0}
    second:
      m_TileIndex: 33
      m_TileSpriteIndex: 33
      m_TileMatrixIndex: 0
      m_TileColorIndex: 0
      m_ObjectToInstantiate: {fileID: 0}
      m_TileFlags: 1
      m_ColliderType: 1
  - first: {x: 4, y: -1, z: 0}
    second:
      m_TileIndex: 14
      m_TileSpriteIndex: 14
      m_TileMatrixIndex: 0
      m_TileColorIndex: 0
      m_ObjectToInstantiate: {fileID: 0}
      m_TileFlags: 1
      m_ColliderType: 1
  - first: {x: 5, y: -1, z: 0}
    second:
      m_TileIndex: 15
      m_TileSpriteIndex: 15
      m_TileMatrixIndex: 0
      m_TileColorIndex: 0
      m_ObjectToInstantiate: {fileID: 0}
      m_TileFlags: 1
      m_ColliderType: 1
  - first: {x: 6, y: -1, z: 0}
    second:
      m_TileIndex: 16
      m_TileSpriteIndex: 16
      m_TileMatrixIndex: 0
      m_TileColorIndex: 0
      m_ObjectToInstantiate: {fileID: 0}
      m_TileFlags: 1
      m_ColliderType: 1
  - first: {x: 7, y: -1, z: 0}
    second:
      m_TileIndex: 37
      m_TileSpriteIndex: 37
      m_TileMatrixIndex: 0
      m_TileColorIndex: 0
      m_ObjectToInstantiate: {fileID: 0}
      m_TileFlags: 1
      m_ColliderType: 1
  - first: {x: -2, y: 0, z: 0}
    second:
      m_TileIndex: 0
      m_TileSpriteIndex: 0
      m_TileMatrixIndex: 0
      m_TileColorIndex: 0
      m_ObjectToInstantiate: {fileID: 0}
      m_TileFlags: 1
      m_ColliderType: 1
  - first: {x: -1, y: 0, z: 0}
    second:
      m_TileIndex: 1
      m_TileSpriteIndex: 1
      m_TileMatrixIndex: 0
      m_TileColorIndex: 0
      m_ObjectToInstantiate: {fileID: 0}
      m_TileFlags: 1
      m_ColliderType: 1
  - first: {x: 0, y: 0, z: 0}
    second:
      m_TileIndex: 2
      m_TileSpriteIndex: 2
      m_TileMatrixIndex: 0
      m_TileColorIndex: 0
      m_ObjectToInstantiate: {fileID: 0}
      m_TileFlags: 1
      m_ColliderType: 1
  - first: {x: 3, y: 0, z: 0}
    second:
      m_TileIndex: 32
      m_TileSpriteIndex: 32
      m_TileMatrixIndex: 0
      m_TileColorIndex: 0
      m_ObjectToInstantiate: {fileID: 0}
      m_TileFlags: 1
      m_ColliderType: 1
  - first: {x: 4, y: 0, z: 0}
    second:
      m_TileIndex: 11
      m_TileSpriteIndex: 11
      m_TileMatrixIndex: 0
      m_TileColorIndex: 0
      m_ObjectToInstantiate: {fileID: 0}
      m_TileFlags: 1
      m_ColliderType: 1
  - first: {x: 5, y: 0, z: 0}
    second:
      m_TileIndex: 12
      m_TileSpriteIndex: 12
      m_TileMatrixIndex: 0
      m_TileColorIndex: 0
      m_ObjectToInstantiate: {fileID: 0}
      m_TileFlags: 1
      m_ColliderType: 1
  - first: {x: 6, y: 0, z: 0}
    second:
      m_TileIndex: 13
      m_TileSpriteIndex: 13
      m_TileMatrixIndex: 0
      m_TileColorIndex: 0
      m_ObjectToInstantiate: {fileID: 0}
      m_TileFlags: 1
      m_ColliderType: 1
  - first: {x: 7, y: 0, z: 0}
    second:
      m_TileIndex: 36
      m_TileSpriteIndex: 36
      m_TileMatrixIndex: 0
      m_TileColorIndex: 0
      m_ObjectToInstantiate: {fileID: 0}
      m_TileFlags: 1
      m_ColliderType: 1
  m_AnimatedTiles: {}
  m_TileAssetArray:
  - m_RefCount: 1
    m_Data: {fileID: 11400000, guid: a8ff7e3a8c375ee428476543f760ffe6, type: 2}
  - m_RefCount: 1
    m_Data: {fileID: 11400000, guid: fdb3d215989f6d04383ae0f994b7bb36, type: 2}
  - m_RefCount: 1
    m_Data: {fileID: 11400000, guid: 95cf64b6fe6e3364fb49109185fbc133, type: 2}
  - m_RefCount: 1
    m_Data: {fileID: 11400000, guid: a1c18ee96491ae643991c9987ce1f53c, type: 2}
  - m_RefCount: 1
    m_Data: {fileID: 11400000, guid: f77056b4c5d9e7040907f9be5162e210, type: 2}
  - m_RefCount: 1
    m_Data: {fileID: 11400000, guid: 2a5a0251202f6664ea5b0c0f7cebec83, type: 2}
  - m_RefCount: 1
    m_Data: {fileID: 11400000, guid: cbaf62bf62dc84d4ba801096adf9711c, type: 2}
  - m_RefCount: 1
    m_Data: {fileID: 11400000, guid: dc679980b385a484d9459fd33805a720, type: 2}
  - m_RefCount: 1
    m_Data: {fileID: 11400000, guid: 176c242de1ff70d438c2781032d81bf9, type: 2}
  - m_RefCount: 1
    m_Data: {fileID: 11400000, guid: 2db4a98cc5654a04698f6aec187fb4be, type: 2}
  - m_RefCount: 1
    m_Data: {fileID: 11400000, guid: 84475da72b1a5674592356b016423320, type: 2}
  - m_RefCount: 1
    m_Data: {fileID: 11400000, guid: 43b9ab5e3ae10db4486ba2930e789d8f, type: 2}
  - m_RefCount: 1
    m_Data: {fileID: 11400000, guid: e91d4eb44dd939847bb93260a1b7de34, type: 2}
  - m_RefCount: 1
    m_Data: {fileID: 11400000, guid: 465061664e335f841bafc0929c5030e5, type: 2}
  - m_RefCount: 1
    m_Data: {fileID: 11400000, guid: 1d9cb31dc320cfb4ba92e44c148be7f7, type: 2}
  - m_RefCount: 1
    m_Data: {fileID: 11400000, guid: f0c3b08e77c8da643948aacb0e9b9d59, type: 2}
  - m_RefCount: 1
    m_Data: {fileID: 11400000, guid: fdb1f79d77eed58458432bacc6c2cdfe, type: 2}
  - m_RefCount: 1
    m_Data: {fileID: 11400000, guid: 52d4abf500755c0478624d21e784d111, type: 2}
  - m_RefCount: 1
    m_Data: {fileID: 11400000, guid: 48dd5a50339cc9a47baab08cdca0848d, type: 2}
  - m_RefCount: 1
    m_Data: {fileID: 11400000, guid: 8fcfcc315af65d8449f7d9f42ad9245c, type: 2}
  - m_RefCount: 1
    m_Data: {fileID: 11400000, guid: 4dceca2cfe8b6584fb97e4f732d989e1, type: 2}
  - m_RefCount: 1
    m_Data: {fileID: 11400000, guid: d533faecba2bc2a4caddb9757184e8e0, type: 2}
  - m_RefCount: 1
    m_Data: {fileID: 11400000, guid: 94676974eaa80dd45a4feedf1d3bf776, type: 2}
  - m_RefCount: 1
    m_Data: {fileID: 11400000, guid: 02b41cc9f8971e942b14050102fe1fd4, type: 2}
  - m_RefCount: 1
    m_Data: {fileID: 11400000, guid: aa1fa88b49fc73d4fa10c6e1360bf416, type: 2}
  - m_RefCount: 1
    m_Data: {fileID: 11400000, guid: 8ab4e14fc1abb4043b038380aac6e163, type: 2}
  - m_RefCount: 1
    m_Data: {fileID: 11400000, guid: 8e7db8d8c90432f49b34064bb8eb539c, type: 2}
  - m_RefCount: 1
    m_Data: {fileID: 11400000, guid: 21eb0ebbe512c504ca84cbbcf9e22a3f, type: 2}
  - m_RefCount: 1
    m_Data: {fileID: 11400000, guid: d9a2b9456c066b745ac6457e38a63cab, type: 2}
  - m_RefCount: 1
    m_Data: {fileID: 11400000, guid: 74110b257c44b6e4f9ff742bb558e0e9, type: 2}
  - m_RefCount: 1
    m_Data: {fileID: 11400000, guid: 49ebc688c3cee5f44b5366656bfb09e3, type: 2}
  - m_RefCount: 1
    m_Data: {fileID: 11400000, guid: a008a10fe1bd6f843ab6d26cc687308d, type: 2}
  - m_RefCount: 1
    m_Data: {fileID: 11400000, guid: e350b0846a39f674b8221c1850fe68c8, type: 2}
  - m_RefCount: 1
    m_Data: {fileID: 11400000, guid: 3e31007e76492e047ae69fcecc87e60d, type: 2}
  - m_RefCount: 1
    m_Data: {fileID: 11400000, guid: e3e2e89c336c01743a660d40f5b49086, type: 2}
  - m_RefCount: 1
    m_Data: {fileID: 11400000, guid: dba74a8830d05204fa345e718e0fbca1, type: 2}
  - m_RefCount: 1
    m_Data: {fileID: 11400000, guid: f5ccc92321e3e3f4aa4e7164ea36f3de, type: 2}
  - m_RefCount: 1
    m_Data: {fileID: 11400000, guid: ce5ed60bfa7d3a54a8f7ffb4a8f8fc08, type: 2}
  - m_RefCount: 1
    m_Data: {fileID: 11400000, guid: 5d25b5166307ff04e815cea8fb6b9a82, type: 2}
  - m_RefCount: 1
    m_Data: {fileID: 11400000, guid: 529e60c9b20cd7b4a81a5ccceaa3e078, type: 2}
  - m_RefCount: 1
    m_Data: {fileID: 11400000, guid: 196753fce340a304dac57c7bb04dc924, type: 2}
  - m_RefCount: 1
    m_Data: {fileID: 11400000, guid: 58081e0f574ed5f4e8a38e078f490b38, type: 2}
  - m_RefCount: 1
    m_Data: {fileID: 11400000, guid: ba8762526a0603b4f8dddfe0571e1c35, type: 2}
  - m_RefCount: 1
    m_Data: {fileID: 11400000, guid: 85199605e29f1e243b9e6f454f4e0ce4, type: 2}
  - m_RefCount: 1
    m_Data: {fileID: 11400000, guid: 6dba8e3484cdc374fadb4b5a9e39351e, type: 2}
  - m_RefCount: 1
    m_Data: {fileID: 11400000, guid: 40c9a1d5aa863ed45946a4959a389895, type: 2}
  - m_RefCount: 1
    m_Data: {fileID: 11400000, guid: 34d09859e5e412645a9b8c985bd08428, type: 2}
  - m_RefCount: 1
    m_Data: {fileID: 11400000, guid: 36191a3d2b46a154dadd25ba7e17325d, type: 2}
  - m_RefCount: 1
    m_Data: {fileID: 11400000, guid: 4d26fe5e6c3cd91459cadc45a55d2893, type: 2}
  - m_RefCount: 1
    m_Data: {fileID: 11400000, guid: 6f9b7fe93ec1e7f4693933837bd4d042, type: 2}
  - m_RefCount: 1
    m_Data: {fileID: 11400000, guid: 96c52d3ea9405b248baa016b941567ac, type: 2}
  - m_RefCount: 1
    m_Data: {fileID: 11400000, guid: 3b196faee1733b2438b443d2d870ee69, type: 2}
  - m_RefCount: 1
    m_Data: {fileID: 11400000, guid: b9f4c4517b45dcc4c88b689f46858784, type: 2}
  - m_RefCount: 1
    m_Data: {fileID: 11400000, guid: 7815f2ff2131f19458b05d28c37512a6, type: 2}
  - m_RefCount: 1
    m_Data: {fileID: 11400000, guid: 45345c19a6832c349b614957fcb62582, type: 2}
  m_TileSpriteArray:
  - m_RefCount: 1
    m_Data: {fileID: -6667027069178782282, guid: 46e6f962d334bda4fa99f46fa8019bd9,
      type: 3}
  - m_RefCount: 1
    m_Data: {fileID: -4254634409356404717, guid: 46e6f962d334bda4fa99f46fa8019bd9,
      type: 3}
  - m_RefCount: 1
    m_Data: {fileID: -6301903729061162670, guid: 46e6f962d334bda4fa99f46fa8019bd9,
      type: 3}
  - m_RefCount: 1
    m_Data: {fileID: -2235794345258528595, guid: 46e6f962d334bda4fa99f46fa8019bd9,
      type: 3}
  - m_RefCount: 1
    m_Data: {fileID: -8383673843520061129, guid: 46e6f962d334bda4fa99f46fa8019bd9,
      type: 3}
  - m_RefCount: 1
    m_Data: {fileID: 7044995889219800216, guid: 46e6f962d334bda4fa99f46fa8019bd9,
      type: 3}
  - m_RefCount: 1
    m_Data: {fileID: 1659753320037269017, guid: 46e6f962d334bda4fa99f46fa8019bd9,
      type: 3}
  - m_RefCount: 1
    m_Data: {fileID: 4696743864900321248, guid: 46e6f962d334bda4fa99f46fa8019bd9,
      type: 3}
  - m_RefCount: 1
    m_Data: {fileID: 2792317990181751627, guid: 46e6f962d334bda4fa99f46fa8019bd9,
      type: 3}
  - m_RefCount: 1
    m_Data: {fileID: 4397206360292674760, guid: 46e6f962d334bda4fa99f46fa8019bd9,
      type: 3}
  - m_RefCount: 1
    m_Data: {fileID: 4771974755511761582, guid: 46e6f962d334bda4fa99f46fa8019bd9,
      type: 3}
  - m_RefCount: 1
    m_Data: {fileID: -1699841151237888670, guid: 3d52b6f3d7432ed40ac8f19b6d934bb7,
      type: 3}
  - m_RefCount: 1
    m_Data: {fileID: -2884529974016444521, guid: 3d52b6f3d7432ed40ac8f19b6d934bb7,
      type: 3}
  - m_RefCount: 1
    m_Data: {fileID: 7515019582321431457, guid: 3d52b6f3d7432ed40ac8f19b6d934bb7,
      type: 3}
  - m_RefCount: 1
    m_Data: {fileID: -6401629586088914863, guid: 3d52b6f3d7432ed40ac8f19b6d934bb7,
      type: 3}
  - m_RefCount: 1
    m_Data: {fileID: -5320384337723516373, guid: 3d52b6f3d7432ed40ac8f19b6d934bb7,
      type: 3}
  - m_RefCount: 1
    m_Data: {fileID: 2189080360659172179, guid: 3d52b6f3d7432ed40ac8f19b6d934bb7,
      type: 3}
  - m_RefCount: 1
    m_Data: {fileID: 3484929290600051932, guid: 3d52b6f3d7432ed40ac8f19b6d934bb7,
      type: 3}
  - m_RefCount: 1
    m_Data: {fileID: 8206041672142422214, guid: 3d52b6f3d7432ed40ac8f19b6d934bb7,
      type: 3}
  - m_RefCount: 1
    m_Data: {fileID: -4444863204533196313, guid: 3d52b6f3d7432ed40ac8f19b6d934bb7,
      type: 3}
  - m_RefCount: 1
    m_Data: {fileID: 8439501752024393427, guid: 3d52b6f3d7432ed40ac8f19b6d934bb7,
      type: 3}
  - m_RefCount: 1
    m_Data: {fileID: 5433650278933624155, guid: 3d52b6f3d7432ed40ac8f19b6d934bb7,
      type: 3}
  - m_RefCount: 1
    m_Data: {fileID: -8985625770066815499, guid: 3d52b6f3d7432ed40ac8f19b6d934bb7,
      type: 3}
  - m_RefCount: 1
    m_Data: {fileID: 7198181772671274149, guid: 3d52b6f3d7432ed40ac8f19b6d934bb7,
      type: 3}
  - m_RefCount: 1
    m_Data: {fileID: 3940226893177888795, guid: 46e6f962d334bda4fa99f46fa8019bd9,
      type: 3}
  - m_RefCount: 1
    m_Data: {fileID: 7861872007015884485, guid: 46e6f962d334bda4fa99f46fa8019bd9,
      type: 3}
  - m_RefCount: 1
    m_Data: {fileID: -3417276367687629177, guid: 46e6f962d334bda4fa99f46fa8019bd9,
      type: 3}
  - m_RefCount: 1
    m_Data: {fileID: -2019173508767852091, guid: 46e6f962d334bda4fa99f46fa8019bd9,
      type: 3}
  - m_RefCount: 1
    m_Data: {fileID: -4746644067032820568, guid: 46e6f962d334bda4fa99f46fa8019bd9,
      type: 3}
  - m_RefCount: 1
    m_Data: {fileID: -650468163505756938, guid: 46e6f962d334bda4fa99f46fa8019bd9,
      type: 3}
  - m_RefCount: 1
    m_Data: {fileID: -6299249088952193581, guid: 46e6f962d334bda4fa99f46fa8019bd9,
      type: 3}
  - m_RefCount: 1
    m_Data: {fileID: -4814997758390707137, guid: 46e6f962d334bda4fa99f46fa8019bd9,
      type: 3}
  - m_RefCount: 1
    m_Data: {fileID: 8103391288831292855, guid: 3d52b6f3d7432ed40ac8f19b6d934bb7,
      type: 3}
  - m_RefCount: 1
    m_Data: {fileID: -7659032165669343543, guid: 3d52b6f3d7432ed40ac8f19b6d934bb7,
      type: 3}
  - m_RefCount: 1
    m_Data: {fileID: -2207330926013877704, guid: 3d52b6f3d7432ed40ac8f19b6d934bb7,
      type: 3}
  - m_RefCount: 1
    m_Data: {fileID: -4573489963947679210, guid: 3d52b6f3d7432ed40ac8f19b6d934bb7,
      type: 3}
  - m_RefCount: 1
    m_Data: {fileID: 4709084253845497147, guid: 3d52b6f3d7432ed40ac8f19b6d934bb7,
      type: 3}
  - m_RefCount: 1
    m_Data: {fileID: -3375760521812648707, guid: 3d52b6f3d7432ed40ac8f19b6d934bb7,
      type: 3}
  - m_RefCount: 1
    m_Data: {fileID: 5577557424542737769, guid: 3d52b6f3d7432ed40ac8f19b6d934bb7,
      type: 3}
  - m_RefCount: 1
    m_Data: {fileID: 56310545946399409, guid: 3d52b6f3d7432ed40ac8f19b6d934bb7, type: 3}
  - m_RefCount: 1
    m_Data: {fileID: 6049605792901559095, guid: 77555d2f7a7f8284f8cdca6cada55db6,
      type: 3}
  - m_RefCount: 1
    m_Data: {fileID: 4177692092066526168, guid: 77555d2f7a7f8284f8cdca6cada55db6,
      type: 3}
  - m_RefCount: 1
    m_Data: {fileID: 8954592487278907307, guid: 77555d2f7a7f8284f8cdca6cada55db6,
      type: 3}
  - m_RefCount: 1
    m_Data: {fileID: -3028715903928053223, guid: 77555d2f7a7f8284f8cdca6cada55db6,
      type: 3}
  - m_RefCount: 1
    m_Data: {fileID: 2664101274904992878, guid: 77555d2f7a7f8284f8cdca6cada55db6,
      type: 3}
  - m_RefCount: 1
    m_Data: {fileID: -770516762760482041, guid: 77555d2f7a7f8284f8cdca6cada55db6,
      type: 3}
  - m_RefCount: 1
    m_Data: {fileID: -5882170695943828418, guid: 77555d2f7a7f8284f8cdca6cada55db6,
      type: 3}
  - m_RefCount: 1
    m_Data: {fileID: -8438048412923043348, guid: 77555d2f7a7f8284f8cdca6cada55db6,
      type: 3}
  - m_RefCount: 1
    m_Data: {fileID: 7591774343886807129, guid: 77555d2f7a7f8284f8cdca6cada55db6,
      type: 3}
  - m_RefCount: 1
    m_Data: {fileID: 8088830456793213489, guid: 77555d2f7a7f8284f8cdca6cada55db6,
      type: 3}
  - m_RefCount: 1
    m_Data: {fileID: -4906324669642958461, guid: 77555d2f7a7f8284f8cdca6cada55db6,
      type: 3}
  - m_RefCount: 1
    m_Data: {fileID: -4272997025716492783, guid: 77555d2f7a7f8284f8cdca6cada55db6,
      type: 3}
  - m_RefCount: 1
    m_Data: {fileID: -7504709878752999052, guid: 77555d2f7a7f8284f8cdca6cada55db6,
      type: 3}
  - m_RefCount: 1
    m_Data: {fileID: 2845312742926433610, guid: 77555d2f7a7f8284f8cdca6cada55db6,
      type: 3}
  - m_RefCount: 1
    m_Data: {fileID: -1816810205503520479, guid: 14ed9c5bb2d8ea947930ee640eb8e176,
      type: 3}
  m_TileMatrixArray:
  - m_RefCount: 55
    m_Data:
      e00: 1
      e01: 0
      e02: 0
      e03: 0
      e10: 0
      e11: 1
      e12: 0
      e13: 0
      e20: 0
      e21: 0
      e22: 1
      e23: 0
      e30: 0
      e31: 0
      e32: 0
      e33: 1
  m_TileColorArray:
  - m_RefCount: 55
    m_Data: {r: 1, g: 1, b: 1, a: 1}
  m_AnimationFrameRate: 1
  m_Color: {r: 1, g: 1, b: 1, a: 1}
  m_Origin: {x: -2, y: -8, z: 0}
  m_Size: {x: 10, y: 9, z: 1}
  m_TileAnchor: {x: 0.5, y: 0.5, z: 0}
  m_TileOrientation: 0
  m_TileOrientationMatrix:
    e00: 1
    e01: 0
    e02: 0
    e03: 0
    e10: 0
    e11: 1
    e12: 0
    e13: 0
    e20: 0
    e21: 0
    e22: 1
    e23: 0
    e30: 0
    e31: 0
    e32: 0
    e33: 1
--- !u!483693784 &8796744099667987815
TilemapRenderer:
  m_ObjectHideFlags: 0
  m_CorrespondingSourceObject: {fileID: 0}
  m_PrefabInstance: {fileID: 0}
  m_PrefabAsset: {fileID: 0}
  m_GameObject: {fileID: 8038383334406385043}
  m_Enabled: 0
  m_CastShadows: 0
  m_ReceiveShadows: 0
  m_DynamicOccludee: 0
  m_MotionVectors: 1
  m_LightProbeUsage: 0
  m_ReflectionProbeUsage: 0
  m_RenderingLayerMask: 1
  m_RendererPriority: 0
  m_Materials:
  - {fileID: 10754, guid: 0000000000000000f000000000000000, type: 0}
  m_StaticBatchInfo:
    firstSubMesh: 0
    subMeshCount: 0
  m_StaticBatchRoot: {fileID: 0}
  m_ProbeAnchor: {fileID: 0}
  m_LightProbeVolumeOverride: {fileID: 0}
  m_ScaleInLightmap: 1
  m_PreserveUVs: 0
  m_IgnoreNormalsForChartDetection: 0
  m_ImportantGI: 0
  m_StitchLightmapSeams: 1
  m_SelectedEditorRenderState: 0
  m_MinimumChartSize: 4
  m_AutoUVMaxDistance: 0.5
  m_AutoUVMaxAngle: 89
  m_LightmapParameters: {fileID: 0}
  m_SortingLayerID: 0
  m_SortingLayer: 0
  m_SortingOrder: 0
  m_ChunkSize: {x: 32, y: 32, z: 32}
  m_ChunkCullingBounds: {x: 0, y: 0, z: 0}
  m_MaxChunkCount: 16
  m_MaxFrameAge: 16
  m_SortOrder: 0
  m_Mode: 0
  m_DetectChunkCullingBounds: 0
  m_MaskInteraction: 0
--- !u!114 &-3618948970692571864
MonoBehaviour:
  m_ObjectHideFlags: 0
  m_CorrespondingSourceObject: {fileID: 0}
  m_PrefabInstance: {fileID: 0}
  m_PrefabAsset: {fileID: 0}
  m_GameObject: {fileID: 0}
  m_Enabled: 1
  m_EditorHideFlags: 0
  m_Script: {fileID: 12395, guid: 0000000000000000e000000000000000, type: 0}
  m_Name: Palette Settings
  m_EditorClassIdentifier: 
  cellSizing: 0
